simulation/qsim/EX1.msim.vcd
$comment
	File created using the following command:
		vcd file EX1.msim.vcd -direction
$end
$date
	Fri Sep 28 10:30:02 2018
$end
$version
	ModelSim Version 10.5b
$end
$timescale
	1ps
$end

$scope module comparador_vhd_vec_tst $end
$var wire 1 ! A [0] $end
$var wire 1 " A [1] $end
$var wire 1 # A [2] $end
$var wire 1 $ B [0] $end
$var wire 1 % B [1] $end
$var wire 1 & B [2] $end
$var wire 1 ' salida $end

$scope module i1 $end
$var wire 1 ( gnd $end
$var wire 1 ) vcc $end
$var wire 1 * unknown $end
$var wire 1 + devoe $end
$var wire 1 , devclrn $end
$var wire 1 - devpor $end
$var wire 1 . ww_devoe $end
$var wire 1 / ww_devclrn $end
$var wire 1 0 ww_devpor $end
$var wire 1 1 ww_A [0] $end
$var wire 1 2 ww_A [1] $end
$var wire 1 3 ww_A [2] $end
$var wire 1 4 ww_B [0] $end
$var wire 1 5 ww_B [1] $end
$var wire 1 6 ww_B [2] $end
$var wire 1 7 ww_salida $end
$var wire 1 8 \salida~output_o\ $end
$var wire 1 9 \B[0]~input_o\ $end
$var wire 1 : \A[0]~input_o\ $end
$var wire 1 ; \B[1]~input_o\ $end
$var wire 1 < \A[1]~input_o\ $end
$var wire 1 = \B[2]~input_o\ $end
$var wire 1 > \A[2]~input_o\ $end
$var wire 1 ? \LessThan0~0_combout\ $end
$var wire 1 @ \LessThan0~1_combout\ $end
$upscope $end
$upscope $end
$enddefinitions $end
#0
$dumpvars
1'
0(
1)
x*
1+
1,
1-
1.
1/
10
17
18
19
0:
0;
0<
1=
0>
1?
1@
0!
0"
0#
1$
0%
1&
01
02
03
14
05
16
$end
#10000
1#
13
1>
0?
#20000
0#
1"
03
12
1<
0>
#30000
1#
13
1>
#40000
0#
0"
1!
03
02
11
1:
0<
0>
1?
0@
08
1@
07
18
0'
17
1'
#50000
1#
13
1>
0?
0@
08
07
0'
#60000
0#
1"
03
12
1<
0>
#70000
1#
13
1>
#80000
0#
0"
0!
03
02
01
0:
0<
0>
1?
1@
18
17
1'
#90000
1#
13
1>
0?
#100000
0#
1"
03
12
1<
0>
#110000
1#
13
1>
#120000
0#
0"
1!
03
02
11
1:
0<
0>
1?
0@
08
1@
07
18
0'
17
1'
#130000
1#
13
1>
0?
0@
08
07
0'
#140000
0#
1"
03
12
1<
0>
#150000
1#
13
1>
#160000
0#
0"
0!
03
02
01
0:
0<
0>
1?
1@
18
17
1'
#170000
1#
13
1>
0?
#180000
0#
1"
03
12
1<
0>
#190000
1#
13
1>
#200000
0#
0"
1!
03
02
11
1:
0<
0>
1?
0@
08
1@
07
18
0'
17
1'
#210000
1#
13
1>
0?
0@
08
07
0'
#220000
0#
1"
03
12
1<
0>
#230000
1#
13
1>
#240000
0#
0"
0!
03
02
01
0:
0<
0>
1?
1@
18
17
1'
#250000
1#
13
1>
0?
#260000
0#
1"
03
12
1<
0>
#270000
1#
13
1>
#280000
0#
0"
1!
03
02
11
1:
0<
0>
1?
0@
08
1@
07
18
0'
17
1'
#290000
1#
13
1>
0?
0@
08
07
0'
#300000
0#
1"
03
12
1<
0>
#310000
1#
13
1>
#320000
0#
0"
0!
03
02
01
0:
0<
0>
1?
1@
18
17
1'
#330000
1#
13
1>
0?
#340000
0#
1"
03
12
1<
0>
#350000
1#
13
1>
#360000
0#
0"
1!
03
02
11
1:
0<
0>
1?
0@
08
1@
07
18
0'
17
1'
#370000
1#
13
1>
0?
0@
08
07
0'
#380000
0#
1"
03
12
1<
0>
#390000
1#
13
1>
#400000
0#
0"
0!
03
02
01
0:
0<
0>
1?
1@
18
17
1'
#410000
1#
13
1>
0?
#420000
0#
1"
03
12
1<
0>
#430000
1#
13
1>
#440000
0#
0"
1!
03
02
11
1:
0<
0>
1?
0@
08
1@
07
18
0'
17
1'
#450000
1#
13
1>
0?
0@
08
07
0'
#460000
0#
1"
03
12
1<
0>
#470000
1#
13
1>
#480000
0#
0"
0!
03
02
01
0:
0<
0>
1?
1@
18
17
1'
#490000
1#
13
1>
0?
#500000
0#
1"
03
12
1<
0>
#510000
1#
13
1>
#520000
0#
0"
1!
03
02
11
1:
0<
0>
1?
0@
08
1@
07
18
0'
17
1'
#530000
1#
13
1>
0?
0@
08
07
0'
#540000
0#
1"
03
12
1<
0>
#550000
1#
13
1>
#560000
0#
0"
0!
03
02
01
0:
0<
0>
1?
1@
18
17
1'
#570000
1#
13
1>
0?
#580000
0#
1"
03
12
1<
0>
#590000
1#
13
1>
#600000
0#
0"
1!
03
02
11
1:
0<
0>
1?
0@
08
1@
07
18
0'
17
1'
#610000
1#
13
1>
0?
0@
08
07
0'
#620000
0#
1"
03
12
1<
0>
#630000
1#
13
1>
#640000
0#
0"
0!
03
02
01
0:
0<
0>
1?
1@
18
17
1'
#650000
1#
13
1>
0?
#660000
0#
1"
03
12
1<
0>
#670000
1#
13
1>
#680000
0#
0"
1!
03
02
11
1:
0<
0>
1?
0@
08
1@
07
18
0'
17
1'
#690000
1#
13
1>
0?
0@
08
07
0'
#700000
0#
1"
03
12
1<
0>
#710000
1#
13
1>
#720000
0#
0"
0!
03
02
01
0:
0<
0>
1?
1@
18
17
1'
#730000
1#
13
1>
0?
#740000
0#
1"
03
12
1<
0>
#750000
1#
13
1>
#760000
0#
0"
1!
03
02
11
1:
0<
0>
1?
0@
08
1@
07
18
0'
17
1'
#770000
1#
13
1>
0?
0@
08
07
0'
#780000
0#
1"
03
12
1<
0>
#790000
1#
13
1>
#800000
0#
0"
0!
03
02
01
0:
0<
0>
1?
1@
18
17
1'
#810000
1#
13
1>
0?
#820000
0#
1"
03
12
1<
0>
#830000
1#
13
1>
#840000
0#
0"
1!
03
02
11
1:
0<
0>
1?
0@
08
1@
07
18
0'
17
1'
#850000
1#
13
1>
0?
0@
08
07
0'
#860000
0#
1"
03
12
1<
0>
#870000
1#
13
1>
#880000
0#
0"
0!
03
02
01
0:
0<
0>
1?
1@
18
17
1'
#890000
1#
13
1>
0?
#900000
0#
1"
03
12
1<
0>
#910000
1#
13
1>
#920000
0#
0"
1!
03
02
11
1:
0<
0>
1?
0@
08
1@
07
18
0'
17
1'
#930000
1#
13
1>
0?
0@
08
07
0'
#940000
0#
1"
03
12
1<
0>
#950000
1#
13
1>
#960000
0#
0"
0!
03
02
01
0:
0<
0>
1?
1@
18
17
1'
#970000
1#
13
1>
0?
#980000
0#
1"
03
12
1<
0>
#990000
1#
13
1>
