simulation/qsim/EX1.msim.vcd
$comment
	File created using the following command:
		vcd file EX1.msim.vcd -direction
$end
$date
	Fri Sep 28 20:06:53 2018
$end
$version
	ModelSim Version 10.5b
$end
$timescale
	1ps
$end

$scope module sumador_vhd_vec_tst $end
$var wire 1 ! A [0] $end
$var wire 1 " A [1] $end
$var wire 1 # A [2] $end
$var wire 1 $ B [0] $end
$var wire 1 % B [1] $end
$var wire 1 & B [2] $end
$var wire 1 ' S [0] $end
$var wire 1 ( S [1] $end
$var wire 1 ) S [2] $end
$var wire 1 * S [3] $end

$scope module i1 $end
$var wire 1 + gnd $end
$var wire 1 , vcc $end
$var wire 1 - unknown $end
$var wire 1 . devoe $end
$var wire 1 / devclrn $end
$var wire 1 0 devpor $end
$var wire 1 1 ww_devoe $end
$var wire 1 2 ww_devclrn $end
$var wire 1 3 ww_devpor $end
$var wire 1 4 ww_A [0] $end
$var wire 1 5 ww_A [1] $end
$var wire 1 6 ww_A [2] $end
$var wire 1 7 ww_B [0] $end
$var wire 1 8 ww_B [1] $end
$var wire 1 9 ww_B [2] $end
$var wire 1 : ww_S [0] $end
$var wire 1 ; ww_S [1] $end
$var wire 1 < ww_S [2] $end
$var wire 1 = ww_S [3] $end
$var wire 1 > \S[3]~output_o\ $end
$var wire 1 ? \S[2]~output_o\ $end
$var wire 1 @ \S[1]~output_o\ $end
$var wire 1 A \S[0]~output_o\ $end
$var wire 1 B \A[2]~input_o\ $end
$var wire 1 C \B[2]~input_o\ $end
$var wire 1 D \S~0_combout\ $end
$var wire 1 E \A[1]~input_o\ $end
$var wire 1 F \B[1]~input_o\ $end
$var wire 1 G \S~1_combout\ $end
$var wire 1 H \A[0]~input_o\ $end
$var wire 1 I \B[0]~input_o\ $end
$var wire 1 J \S~2_combout\ $end
$var wire 1 K \S~3_combout\ $end
$var wire 1 L \S~4_combout\ $end
$upscope $end
$upscope $end
$enddefinitions $end
#0
$dumpvars
0+
1,
x-
1.
1/
10
11
12
13
0>
0?
0@
0A
0B
0C
0D
0E
0F
0G
0H
0I
0J
0K
0L
0!
0"
0#
0$
0%
0&
04
05
06
07
08
09
0:
0;
0<
0=
0'
0(
0)
0*
$end
#10000
1#
16
1B
1D
1>
1=
1*
#20000
0#
1"
06
15
1E
0B
0D
1G
1?
0>
1<
0=
0*
1)
#30000
1#
16
1B
1D
1>
1=
1*
#40000
0#
0"
1!
06
05
14
1H
0E
0B
0D
0G
1K
1@
0?
0>
1;
0<
0=
0*
0)
1(
#50000
1#
16
1B
1D
1>
1=
1*
#60000
0#
1"
06
15
1E
0B
0D
1G
1?
0>
1<
0=
0*
1)
#70000
1#
16
1B
1D
1>
1=
1*
#80000
0#
0"
0!
1&
06
05
04
19
1C
0H
0E
0B
0K
0G
0?
0@
0<
0;
0)
0(
#90000
1#
16
1B
0D
1G
1?
0>
1<
0=
0*
1)
#100000
0#
1"
06
15
1E
0B
1D
1>
1=
1*
#110000
1#
16
1B
0D
0G
1J
0?
0>
1K
0<
0=
1@
0*
0)
1;
1(
#120000
0#
0"
1!
06
05
14
1H
0E
0B
1D
0J
0K
1L
1A
0@
1>
1K
0L
1:
0;
1=
0A
1@
1*
0(
1'
0:
1;
1(
0'
#130000
1#
16
1B
0D
1G
1?
0>
1<
0=
0*
1)
#140000
0#
1"
06
15
1E
0B
1D
1>
1=
1*
#150000
1#
16
1B
0D
0G
1J
0?
0>
0K
1L
0<
0=
1A
0@
0*
0)
1:
0;
0(
1'
#160000
0#
0"
0!
0&
1%
06
05
04
09
18
1F
0C
0H
0E
0B
1K
0L
1G
0J
1?
0A
1@
0K
1<
0:
1;
0@
1)
1(
0'
0;
0(
#170000
1#
16
1B
1D
1>
1=
1*
#180000
0#
1"
06
15
1E
0B
0D
0G
1J
0?
0>
1K
0<
0=
1@
0*
0)
1;
1(
#190000
1#
16
1B
1D
1>
1=
1*
#200000
0#
0"
1!
06
05
14
1H
0E
0B
0D
1G
0J
0K
1L
1A
0@
1?
0>
1K
0L
1:
0;
1<
0=
0A
1@
0*
1)
0(
1'
0:
1;
1(
0'
#210000
1#
16
1B
1D
1>
1=
1*
#220000
0#
1"
06
15
1E
0B
0D
0G
1J
0?
0>
0K
1L
0<
0=
1A
0@
0*
0)
1:
0;
0(
1'
#230000
1#
16
1B
1D
1>
1=
1*
#240000
0#
0"
0!
1&
06
05
04
19
1C
0H
0E
0B
1K
0L
1G
0J
1?
0A
1@
0K
1<
0:
1;
0@
1)
1(
0'
0;
0(
#250000
1#
16
1B
0D
0G
1J
0?
0>
1K
0<
0=
1@
0*
0)
1;
1(
#260000
0#
1"
06
15
1E
0B
1D
1>
1=
1*
#270000
1#
16
1B
0D
1G
1?
0>
1<
0=
0*
1)
#280000
0#
0"
1!
06
05
14
1H
0E
0B
1D
0J
0K
1L
1A
0@
1>
1K
0L
1:
0;
1=
0A
1@
1*
0(
1'
0:
1;
1(
0'
#290000
1#
16
1B
0D
0G
1J
0?
0>
0K
1L
0<
0=
1A
0@
0*
0)
1:
0;
0(
1'
#300000
0#
1"
06
15
1E
0B
1D
1>
1=
1*
#310000
1#
16
1B
0D
1G
1?
0>
1<
0=
0*
1)
#320000
0#
0"
0!
0&
0%
1$
06
05
04
09
08
17
1I
0F
0C
0H
0E
0B
0G
0J
0?
1K
0L
0<
0A
1@
0)
0:
1;
1(
0'
#330000
1#
16
1B
1D
1>
1=
1*
#340000
0#
1"
06
15
1E
0B
0D
1G
1?
0>
1<
0=
0*
1)
#350000
1#
16
1B
1D
1>
1=
1*
#360000
0#
0"
1!
06
05
14
1H
0E
0B
0D
0G
0K
1L
1A
0@
0?
0>
1:
0;
0<
0=
0*
0)
0(
1'
#370000
1#
16
1B
1D
1>
1=
1*
#380000
0#
1"
06
15
1E
0B
0D
1G
1?
0>
1<
0=
0*
1)
#390000
1#
16
1B
1D
1>
1=
1*
#400000
0#
0"
0!
1&
06
05
04
19
1C
0H
0E
0B
1K
0L
0G
0?
0A
1@
0<
0:
1;
0)
1(
0'
#410000
1#
16
1B
0D
1G
1?
0>
1<
0=
0*
1)
#420000
0#
1"
06
15
1E
0B
1D
1>
1=
1*
#430000
1#
16
1B
0D
0G
1J
0?
0>
0K
1L
0<
0=
1A
0@
0*
0)
1:
0;
0(
1'
#440000
0#
0"
1!
06
05
14
1H
0E
0B
1D
0J
1K
1@
1>
0K
1;
1=
0@
1*
1(
0;
0(
#450000
1#
16
1B
0D
1G
1?
0>
1<
0=
0*
1)
#460000
0#
1"
06
15
1E
0B
1D
1>
1=
1*
#470000
1#
16
1B
0D
0G
1J
0?
0>
1K
0<
0=
1@
0*
0)
1;
1(
#480000
0#
0"
0!
0&
1%
06
05
04
09
18
1F
0C
0H
0E
0B
0K
1G
0J
1?
0@
1K
0L
1<
0;
0A
1@
1)
0(
0:
1;
1(
0'
#490000
1#
16
1B
1D
1>
1=
1*
#500000
0#
1"
06
15
1E
0B
0D
0G
1J
0?
0>
0K
1L
0<
0=
1A
0@
0*
0)
1:
0;
0(
1'
#510000
1#
16
1B
1D
1>
1=
1*
#520000
0#
0"
1!
06
05
14
1H
0E
0B
0D
1G
0J
1K
1@
1?
0>
0K
1;
1<
0=
0@
0*
1)
1(
0;
0(
#530000
1#
16
1B
1D
1>
1=
1*
#540000
0#
1"
06
15
1E
0B
0D
0G
1J
0?
0>
1K
0<
0=
1@
0*
0)
1;
1(
#550000
1#
16
1B
1D
1>
1=
1*
#560000
0#
0"
0!
1&
06
05
04
19
1C
0H
0E
0B
0K
1G
0J
1?
0@
1K
0L
1<
0;
0A
1@
1)
0(
0:
1;
1(
0'
#570000
1#
16
1B
0D
0G
1J
0?
0>
0K
1L
0<
0=
1A
0@
0*
0)
1:
0;
0(
1'
#580000
0#
1"
06
15
1E
0B
1D
1>
1=
1*
#590000
1#
16
1B
0D
1G
1?
0>
1<
0=
0*
1)
#600000
0#
0"
1!
06
05
14
1H
0E
0B
1D
0J
1K
1@
1>
0K
1;
1=
0@
1*
1(
0;
0(
#610000
1#
16
1B
0D
0G
1J
0?
0>
1K
0<
0=
1@
0*
0)
1;
1(
#620000
0#
1"
06
15
1E
0B
1D
1>
1=
1*
#630000
1#
16
1B
0D
1G
1?
0>
1<
0=
0*
1)
#640000
0#
0"
0!
0&
0%
0$
06
05
04
09
08
07
0I
0F
0C
0H
0E
0B
0G
0J
0L
0A
0?
0K
0:
0<
0@
0)
0'
0;
0(
#650000
1#
16
1B
1D
1>
1=
1*
#660000
0#
1"
06
15
1E
0B
0D
1G
1?
0>
1<
0=
0*
1)
#670000
1#
16
1B
1D
1>
1=
1*
#680000
0#
0"
1!
06
05
14
1H
0E
0B
0D
0G
1K
1@
0?
0>
1;
0<
0=
0*
0)
1(
#690000
1#
16
1B
1D
1>
1=
1*
#700000
0#
1"
06
15
1E
0B
0D
1G
1?
0>
1<
0=
0*
1)
#710000
1#
16
1B
1D
1>
1=
1*
#720000
0#
0"
0!
1&
06
05
04
19
1C
0H
0E
0B
0K
0G
0?
0@
0<
0;
0)
0(
#730000
1#
16
1B
0D
1G
1?
0>
1<
0=
0*
1)
#740000
0#
1"
06
15
1E
0B
1D
1>
1=
1*
#750000
1#
16
1B
0D
0G
1J
0?
0>
1K
0<
0=
1@
0*
0)
1;
1(
#760000
0#
0"
1!
06
05
14
1H
0E
0B
1D
0J
0K
1L
1A
0@
1>
1K
0L
1:
0;
1=
0A
1@
1*
0(
1'
0:
1;
1(
0'
#770000
1#
16
1B
0D
1G
1?
0>
1<
0=
0*
1)
#780000
0#
1"
06
15
1E
0B
1D
1>
1=
1*
#790000
1#
16
1B
0D
0G
1J
0?
0>
0K
1L
0<
0=
1A
0@
0*
0)
1:
0;
0(
1'
#800000
0#
0"
0!
0&
1%
06
05
04
09
18
1F
0C
0H
0E
0B
1K
0L
1G
0J
1?
0A
1@
0K
1<
0:
1;
0@
1)
1(
0'
0;
0(
#810000
1#
16
1B
1D
1>
1=
1*
#820000
0#
1"
06
15
1E
0B
0D
0G
1J
0?
0>
1K
0<
0=
1@
0*
0)
1;
1(
#830000
1#
16
1B
1D
1>
1=
1*
#840000
0#
0"
1!
06
05
14
1H
0E
0B
0D
1G
0J
0K
1L
1A
0@
1?
0>
1K
0L
1:
0;
1<
0=
0A
1@
0*
1)
0(
1'
0:
1;
1(
0'
#850000
1#
16
1B
1D
1>
1=
1*
#860000
0#
1"
06
15
1E
0B
0D
0G
1J
0?
0>
0K
1L
0<
0=
1A
0@
0*
0)
1:
0;
0(
1'
#870000
1#
16
1B
1D
1>
1=
1*
#880000
0#
0"
0!
1&
06
05
04
19
1C
0H
0E
0B
1K
0L
1G
0J
1?
0A
1@
0K
1<
0:
1;
0@
1)
1(
0'
0;
0(
#890000
1#
16
1B
0D
0G
1J
0?
0>
1K
0<
0=
1@
0*
0)
1;
1(
#900000
0#
1"
06
15
1E
0B
1D
1>
1=
1*
#910000
1#
16
1B
0D
1G
1?
0>
1<
0=
0*
1)
#920000
0#
0"
1!
06
05
14
1H
0E
0B
1D
0J
0K
1L
1A
0@
1>
1K
0L
1:
0;
1=
0A
1@
1*
0(
1'
0:
1;
1(
0'
#930000
1#
16
1B
0D
0G
1J
0?
0>
0K
1L
0<
0=
1A
0@
0*
0)
1:
0;
0(
1'
#940000
0#
1"
06
15
1E
0B
1D
1>
1=
1*
#950000
1#
16
1B
0D
1G
1?
0>
1<
0=
0*
1)
#960000
0#
0"
0!
0&
0%
1$
06
05
04
09
08
17
1I
0F
0C
0H
0E
0B
0G
0J
0?
1K
0L
0<
0A
1@
0)
0:
1;
1(
0'
#970000
1#
16
1B
1D
1>
1=
1*
#980000
0#
1"
06
15
1E
0B
0D
1G
1?
0>
1<
0=
0*
1)
#990000
1#
16
1B
1D
1>
1=
1*
#1000000
0#
0"
1!
06
05
14
1H
0E
0B
0D
0G
0K
1L
1A
0@
0?
0>
1:
0;
0<
0=
0*
0)
0(
1'
#1010000
1#
16
1B
1D
1>
1=
1*
#1020000
0#
1"
06
15
1E
0B
0D
1G
1?
0>
1<
0=
0*
1)
#1030000
1#
16
1B
1D
1>
1=
1*
#1040000
0#
0"
0!
1&
06
05
04
19
1C
0H
0E
0B
1K
0L
0G
0?
0A
1@
0<
0:
1;
0)
1(
0'
#1050000
1#
16
1B
0D
1G
1?
0>
1<
0=
0*
1)
#1060000
0#
1"
06
15
1E
0B
1D
1>
1=
1*
#1070000
1#
16
1B
0D
0G
1J
0?
0>
0K
1L
0<
0=
1A
0@
0*
0)
1:
0;
0(
1'
#1080000
0#
0"
1!
06
05
14
1H
0E
0B
1D
0J
1K
1@
1>
0K
1;
1=
0@
1*
1(
0;
0(
#1090000
1#
16
1B
0D
1G
1?
0>
1<
0=
0*
1)
#1100000
0#
1"
06
15
1E
0B
1D
1>
1=
1*
#1110000
1#
16
1B
0D
0G
1J
0?
0>
1K
0<
0=
1@
0*
0)
1;
1(
#1120000
0#
0"
0!
0&
1%
06
05
04
09
18
1F
0C
0H
0E
0B
0K
1G
0J
1?
0@
1K
0L
1<
0;
0A
1@
1)
0(
0:
1;
1(
0'
#1130000
1#
16
1B
1D
1>
1=
1*
#1140000
0#
1"
06
15
1E
0B
0D
0G
1J
0?
0>
0K
1L
0<
0=
1A
0@
0*
0)
1:
0;
0(
1'
#1150000
1#
16
1B
1D
1>
1=
1*
#1160000
0#
0"
1!
06
05
14
1H
0E
0B
0D
1G
0J
1K
1@
1?
0>
0K
1;
1<
0=
0@
0*
1)
1(
0;
0(
#1170000
1#
16
1B
1D
1>
1=
1*
#1180000
0#
1"
06
15
1E
0B
0D
0G
1J
0?
0>
1K
0<
0=
1@
0*
0)
1;
1(
#1190000
1#
16
1B
1D
1>
1=
1*
#1200000
0#
0"
0!
1&
06
05
04
19
1C
0H
0E
0B
0K
1G
0J
1?
0@
1K
0L
1<
0;
0A
1@
1)
0(
0:
1;
1(
0'
#1210000
1#
16
1B
0D
0G
1J
0?
0>
0K
1L
0<
0=
1A
0@
0*
0)
1:
0;
0(
1'
#1220000
0#
1"
06
15
1E
0B
1D
1>
1=
1*
#1230000
1#
16
1B
0D
1G
1?
0>
1<
0=
0*
1)
#1240000
0#
0"
1!
06
05
14
1H
0E
0B
1D
0J
1K
1@
1>
0K
1;
1=
0@
1*
1(
0;
0(
#1250000
1#
16
1B
0D
0G
1J
0?
0>
1K
0<
0=
1@
0*
0)
1;
1(
#1260000
0#
1"
06
15
1E
0B
1D
1>
1=
1*
#1270000
1#
16
1B
0D
1G
1?
0>
1<
0=
0*
1)
#1280000
0#
0"
0!
0&
0%
0$
06
05
04
09
08
07
0I
0F
0C
0H
0E
0B
0G
0J
0L
0A
0?
0K
0:
0<
0@
0)
0'
0;
0(
#1290000
1#
16
1B
1D
1>
1=
1*
#1300000
0#
1"
06
15
1E
0B
0D
1G
1?
0>
1<
0=
0*
1)
#1310000
1#
16
1B
1D
1>
1=
1*
#1320000
0#
0"
1!
06
05
14
1H
0E
0B
0D
0G
1K
1@
0?
0>
1;
0<
0=
0*
0)
1(
#1330000
1#
16
1B
1D
1>
1=
1*
#1340000
0#
1"
06
15
1E
0B
0D
1G
1?
0>
1<
0=
0*
1)
#1350000
1#
16
1B
1D
1>
1=
1*
#1360000
0#
0"
0!
1&
06
05
04
19
1C
0H
0E
0B
0K
0G
0?
0@
0<
0;
0)
0(
#1370000
1#
16
1B
0D
1G
1?
0>
1<
0=
0*
1)
#1380000
0#
1"
06
15
1E
0B
1D
1>
1=
1*
#1390000
1#
16
1B
0D
0G
1J
0?
0>
1K
0<
0=
1@
0*
0)
1;
1(
#1400000
0#
0"
1!
06
05
14
1H
0E
0B
1D
0J
0K
1L
1A
0@
1>
1K
0L
1:
0;
1=
0A
1@
1*
0(
1'
0:
1;
1(
0'
#1410000
1#
16
1B
0D
1G
1?
0>
1<
0=
0*
1)
#1420000
0#
1"
06
15
1E
0B
1D
1>
1=
1*
#1430000
1#
16
1B
0D
0G
1J
0?
0>
0K
1L
0<
0=
1A
0@
0*
0)
1:
0;
0(
1'
#1440000
0#
0"
0!
0&
1%
06
05
04
09
18
1F
0C
0H
0E
0B
1K
0L
1G
0J
1?
0A
1@
0K
1<
0:
1;
0@
1)
1(
0'
0;
0(
#1450000
1#
16
1B
1D
1>
1=
1*
#1460000
0#
1"
06
15
1E
0B
0D
0G
1J
0?
0>
1K
0<
0=
1@
0*
0)
1;
1(
#1470000
1#
16
1B
1D
1>
1=
1*
#1480000
0#
0"
1!
06
05
14
1H
0E
0B
0D
1G
0J
0K
1L
1A
0@
1?
0>
1K
0L
1:
0;
1<
0=
0A
1@
0*
1)
0(
1'
0:
1;
1(
0'
#1490000
1#
16
1B
1D
1>
1=
1*
#1500000
0#
1"
06
15
1E
0B
0D
0G
1J
0?
0>
0K
1L
0<
0=
1A
0@
0*
0)
1:
0;
0(
1'
#1510000
1#
16
1B
1D
1>
1=
1*
#1520000
0#
0"
0!
1&
06
05
04
19
1C
0H
0E
0B
1K
0L
1G
0J
1?
0A
1@
0K
1<
0:
1;
0@
1)
1(
0'
0;
0(
#1530000
1#
16
1B
0D
0G
1J
0?
0>
1K
0<
0=
1@
0*
0)
1;
1(
#1540000
0#
1"
06
15
1E
0B
1D
1>
1=
1*
#1550000
1#
16
1B
0D
1G
1?
0>
1<
0=
0*
1)
#1560000
0#
0"
1!
06
05
14
1H
0E
0B
1D
0J
0K
1L
1A
0@
1>
1K
0L
1:
0;
1=
0A
1@
1*
0(
1'
0:
1;
1(
0'
#1570000
1#
16
1B
0D
0G
1J
0?
0>
0K
1L
0<
0=
1A
0@
0*
0)
1:
0;
0(
1'
#1580000
0#
1"
06
15
1E
0B
1D
1>
1=
1*
#1590000
1#
16
1B
0D
1G
1?
0>
1<
0=
0*
1)
#1600000
0#
0"
0!
0&
0%
1$
06
05
04
09
08
17
1I
0F
0C
0H
0E
0B
0G
0J
0?
1K
0L
0<
0A
1@
0)
0:
1;
1(
0'
#1610000
1#
16
1B
1D
1>
1=
1*
#1620000
0#
1"
06
15
1E
0B
0D
1G
1?
0>
1<
0=
0*
1)
#1630000
1#
16
1B
1D
1>
1=
1*
#1640000
0#
0"
1!
06
05
14
1H
0E
0B
0D
0G
0K
1L
1A
0@
0?
0>
1:
0;
0<
0=
0*
0)
0(
1'
#1650000
1#
16
1B
1D
1>
1=
1*
#1660000
0#
1"
06
15
1E
0B
0D
1G
1?
0>
1<
0=
0*
1)
#1670000
1#
16
1B
1D
1>
1=
1*
#1680000
0#
0"
0!
1&
06
05
04
19
1C
0H
0E
0B
1K
0L
0G
0?
0A
1@
0<
0:
1;
0)
1(
0'
#1690000
1#
16
1B
0D
1G
1?
0>
1<
0=
0*
1)
#1700000
0#
1"
06
15
1E
0B
1D
1>
1=
1*
#1710000
1#
16
1B
0D
0G
1J
0?
0>
0K
1L
0<
0=
1A
0@
0*
0)
1:
0;
0(
1'
#1720000
0#
0"
1!
06
05
14
1H
0E
0B
1D
0J
1K
1@
1>
0K
1;
1=
0@
1*
1(
0;
0(
#1730000
1#
16
1B
0D
1G
1?
0>
1<
0=
0*
1)
#1740000
0#
1"
06
15
1E
0B
1D
1>
1=
1*
#1750000
1#
16
1B
0D
0G
1J
0?
0>
1K
0<
0=
1@
0*
0)
1;
1(
#1760000
0#
0"
0!
0&
1%
06
05
04
09
18
1F
0C
0H
0E
0B
0K
1G
0J
1?
0@
1K
0L
1<
0;
0A
1@
1)
0(
0:
1;
1(
0'
#1770000
1#
16
1B
1D
1>
1=
1*
#1780000
0#
1"
06
15
1E
0B
0D
0G
1J
0?
0>
0K
1L
0<
0=
1A
0@
0*
0)
1:
0;
0(
1'
#1790000
1#
16
1B
1D
1>
1=
1*
#1800000
0#
0"
1!
06
05
14
1H
0E
0B
0D
1G
0J
1K
1@
1?
0>
0K
1;
1<
0=
0@
0*
1)
1(
0;
0(
#1810000
1#
16
1B
1D
1>
1=
1*
#1820000
0#
1"
06
15
1E
0B
0D
0G
1J
0?
0>
1K
0<
0=
1@
0*
0)
1;
1(
#1830000
1#
16
1B
1D
1>
1=
1*
#1840000
0#
0"
0!
1&
06
05
04
19
1C
0H
0E
0B
0K
1G
0J
1?
0@
1K
0L
1<
0;
0A
1@
1)
0(
0:
1;
1(
0'
#1850000
1#
16
1B
0D
0G
1J
0?
0>
0K
1L
0<
0=
1A
0@
0*
0)
1:
0;
0(
1'
#1860000
0#
1"
06
15
1E
0B
1D
1>
1=
1*
#1870000
1#
16
1B
0D
1G
1?
0>
1<
0=
0*
1)
#1880000
0#
0"
1!
06
05
14
1H
0E
0B
1D
0J
1K
1@
1>
0K
1;
1=
0@
1*
1(
0;
0(
#1890000
1#
16
1B
0D
0G
1J
0?
0>
1K
0<
0=
1@
0*
0)
1;
1(
#1900000
0#
1"
06
15
1E
0B
1D
1>
1=
1*
#1910000
1#
16
1B
0D
1G
1?
0>
1<
0=
0*
1)
#1920000
0#
0"
0!
0&
0%
0$
06
05
04
09
08
07
0I
0F
0C
0H
0E
0B
0G
0J
0L
0A
0?
0K
0:
0<
0@
0)
0'
0;
0(
#1930000
1#
16
1B
1D
1>
1=
1*
#1940000
0#
1"
06
15
1E
0B
0D
1G
1?
0>
1<
0=
0*
1)
#1950000
1#
16
1B
1D
1>
1=
1*
#1960000
0#
0"
1!
06
05
14
1H
0E
0B
0D
0G
1K
1@
0?
0>
1;
0<
0=
0*
0)
1(
#1970000
1#
16
1B
1D
1>
1=
1*
#1980000
0#
1"
06
15
1E
0B
0D
1G
1?
0>
1<
0=
0*
1)
#1990000
1#
16
1B
1D
1>
1=
1*
#2000000
0#
0"
0!
1&
06
05
04
19
1C
0H
0E
0B
0K
0G
0?
0@
0<
0;
0)
0(
#2010000
1#
16
1B
0D
1G
1?
0>
1<
0=
0*
1)
#2020000
0#
1"
06
15
1E
0B
1D
1>
1=
1*
#2030000
1#
16
1B
0D
0G
1J
0?
0>
1K
0<
0=
1@
0*
0)
1;
1(
#2040000
0#
0"
1!
06
05
14
1H
0E
0B
1D
0J
0K
1L
1A
0@
1>
1K
0L
1:
0;
1=
0A
1@
1*
0(
1'
0:
1;
1(
0'
#2050000
1#
16
1B
0D
1G
1?
0>
1<
0=
0*
1)
#2060000
0#
1"
06
15
1E
0B
1D
1>
1=
1*
#2070000
1#
16
1B
0D
0G
1J
0?
0>
0K
1L
0<
0=
1A
0@
0*
0)
1:
0;
0(
1'
#2080000
0#
0"
0!
0&
1%
06
05
04
09
18
1F
0C
0H
0E
0B
1K
0L
1G
0J
1?
0A
1@
0K
1<
0:
1;
0@
1)
1(
0'
0;
0(
#2090000
1#
16
1B
1D
1>
1=
1*
#2100000
0#
1"
06
15
1E
0B
0D
0G
1J
0?
0>
1K
0<
0=
1@
0*
0)
1;
1(
#2110000
1#
16
1B
1D
1>
1=
1*
#2120000
0#
0"
1!
06
05
14
1H
0E
0B
0D
1G
0J
0K
1L
1A
0@
1?
0>
1K
0L
1:
0;
1<
0=
0A
1@
0*
1)
0(
1'
0:
1;
1(
0'
#2130000
1#
16
1B
1D
1>
1=
1*
#2140000
0#
1"
06
15
1E
0B
0D
0G
1J
0?
0>
0K
1L
0<
0=
1A
0@
0*
0)
1:
0;
0(
1'
#2150000
1#
16
1B
1D
1>
1=
1*
#2160000
0#
0"
0!
1&
06
05
04
19
1C
0H
0E
0B
1K
0L
1G
0J
1?
0A
1@
0K
1<
0:
1;
0@
1)
1(
0'
0;
0(
#2170000
1#
16
1B
0D
0G
1J
0?
0>
1K
0<
0=
1@
0*
0)
1;
1(
#2180000
0#
1"
06
15
1E
0B
1D
1>
1=
1*
#2190000
1#
16
1B
0D
1G
1?
0>
1<
0=
0*
1)
#2200000
0#
0"
1!
06
05
14
1H
0E
0B
1D
0J
0K
1L
1A
0@
1>
1K
0L
1:
0;
1=
0A
1@
1*
0(
1'
0:
1;
1(
0'
#2210000
1#
16
1B
0D
0G
1J
0?
0>
0K
1L
0<
0=
1A
0@
0*
0)
1:
0;
0(
1'
#2220000
0#
1"
06
15
1E
0B
1D
1>
1=
1*
#2230000
1#
16
1B
0D
1G
1?
0>
1<
0=
0*
1)
#2240000
0#
0"
0!
0&
0%
1$
06
05
04
09
08
17
1I
0F
0C
0H
0E
0B
0G
0J
0?
1K
0L
0<
0A
1@
0)
0:
1;
1(
0'
#2250000
1#
16
1B
1D
1>
1=
1*
#2260000
0#
1"
06
15
1E
0B
0D
1G
1?
0>
1<
0=
0*
1)
#2270000
1#
16
1B
1D
1>
1=
1*
#2280000
0#
0"
1!
06
05
14
1H
0E
0B
0D
0G
0K
1L
1A
0@
0?
0>
1:
0;
0<
0=
0*
0)
0(
1'
#2290000
1#
16
1B
1D
1>
1=
1*
#2300000
0#
1"
06
15
1E
0B
0D
1G
1?
0>
1<
0=
0*
1)
#2310000
1#
16
1B
1D
1>
1=
1*
#2320000
0#
0"
0!
1&
06
05
04
19
1C
0H
0E
0B
1K
0L
0G
0?
0A
1@
0<
0:
1;
0)
1(
0'
#2330000
1#
16
1B
0D
1G
1?
0>
1<
0=
0*
1)
#2340000
0#
1"
06
15
1E
0B
1D
1>
1=
1*
#2350000
1#
16
1B
0D
0G
1J
0?
0>
0K
1L
0<
0=
1A
0@
0*
0)
1:
0;
0(
1'
#2360000
0#
0"
1!
06
05
14
1H
0E
0B
1D
0J
1K
1@
1>
0K
1;
1=
0@
1*
1(
0;
0(
#2370000
1#
16
1B
0D
1G
1?
0>
1<
0=
0*
1)
#2380000
0#
1"
06
15
1E
0B
1D
1>
1=
1*
#2390000
1#
16
1B
0D
0G
1J
0?
0>
1K
0<
0=
1@
0*
0)
1;
1(
#2400000
0#
0"
0!
0&
1%
06
05
04
09
18
1F
0C
0H
0E
0B
0K
1G
0J
1?
0@
1K
0L
1<
0;
0A
1@
1)
0(
0:
1;
1(
0'
#2410000
1#
16
1B
1D
1>
1=
1*
#2420000
0#
1"
06
15
1E
0B
0D
0G
1J
0?
0>
0K
1L
0<
0=
1A
0@
0*
0)
1:
0;
0(
1'
#2430000
1#
16
1B
1D
1>
1=
1*
#2440000
0#
0"
1!
06
05
14
1H
0E
0B
0D
1G
0J
1K
1@
1?
0>
0K
1;
1<
0=
0@
0*
1)
1(
0;
0(
#2450000
1#
16
1B
1D
1>
1=
1*
#2460000
0#
1"
06
15
1E
0B
0D
0G
1J
0?
0>
1K
0<
0=
1@
0*
0)
1;
1(
#2470000
1#
16
1B
1D
1>
1=
1*
#2480000
0#
0"
0!
1&
06
05
04
19
1C
0H
0E
0B
0K
1G
0J
1?
0@
1K
0L
1<
0;
0A
1@
1)
0(
0:
1;
1(
0'
#2490000
1#
16
1B
0D
0G
1J
0?
0>
0K
1L
0<
0=
1A
0@
0*
0)
1:
0;
0(
1'
#2500000
0#
1"
06
15
1E
0B
1D
1>
1=
1*
#2510000
1#
16
1B
0D
1G
1?
0>
1<
0=
0*
1)
#2520000
0#
0"
1!
06
05
14
1H
0E
0B
1D
0J
1K
1@
1>
0K
1;
1=
0@
1*
1(
0;
0(
#2530000
1#
16
1B
0D
0G
1J
0?
0>
1K
0<
0=
1@
0*
0)
1;
1(
#2540000
0#
1"
06
15
1E
0B
1D
1>
1=
1*
#2550000
1#
16
1B
0D
1G
1?
0>
1<
0=
0*
1)
#2560000
0#
0"
0!
0&
0%
0$
06
05
04
09
08
07
0I
0F
0C
0H
0E
0B
0G
0J
0L
0A
0?
0K
0:
0<
0@
0)
0'
0;
0(
#2570000
1#
16
1B
1D
1>
1=
1*
#2580000
0#
1"
06
15
1E
0B
0D
1G
1?
0>
1<
0=
0*
1)
#2590000
1#
16
1B
1D
1>
1=
1*
#2600000
0#
0"
1!
06
05
14
1H
0E
0B
0D
0G
1K
1@
0?
0>
1;
0<
0=
0*
0)
1(
#2610000
1#
16
1B
1D
1>
1=
1*
#2620000
0#
1"
06
15
1E
0B
0D
1G
1?
0>
1<
0=
0*
1)
#2630000
1#
16
1B
1D
1>
1=
1*
#2640000
0#
0"
0!
1&
06
05
04
19
1C
0H
0E
0B
0K
0G
0?
0@
0<
0;
0)
0(
#2650000
1#
16
1B
0D
1G
1?
0>
1<
0=
0*
1)
#2660000
0#
1"
06
15
1E
0B
1D
1>
1=
1*
#2670000
1#
16
1B
0D
0G
1J
0?
0>
1K
0<
0=
1@
0*
0)
1;
1(
#2680000
0#
0"
1!
06
05
14
1H
0E
0B
1D
0J
0K
1L
1A
0@
1>
1K
0L
1:
0;
1=
0A
1@
1*
0(
1'
0:
1;
1(
0'
#2690000
1#
16
1B
0D
1G
1?
0>
1<
0=
0*
1)
#2700000
0#
1"
06
15
1E
0B
1D
1>
1=
1*
#2710000
1#
16
1B
0D
0G
1J
0?
0>
0K
1L
0<
0=
1A
0@
0*
0)
1:
0;
0(
1'
#2720000
0#
0"
0!
0&
1%
06
05
04
09
18
1F
0C
0H
0E
0B
1K
0L
1G
0J
1?
0A
1@
0K
1<
0:
1;
0@
1)
1(
0'
0;
0(
#2730000
1#
16
1B
1D
1>
1=
1*
#2740000
0#
1"
06
15
1E
0B
0D
0G
1J
0?
0>
1K
0<
0=
1@
0*
0)
1;
1(
#2750000
1#
16
1B
1D
1>
1=
1*
#2760000
0#
0"
1!
06
05
14
1H
0E
0B
0D
1G
0J
0K
1L
1A
0@
1?
0>
1K
0L
1:
0;
1<
0=
0A
1@
0*
1)
0(
1'
0:
1;
1(
0'
#2770000
1#
16
1B
1D
1>
1=
1*
#2780000
0#
1"
06
15
1E
0B
0D
0G
1J
0?
0>
0K
1L
0<
0=
1A
0@
0*
0)
1:
0;
0(
1'
#2790000
1#
16
1B
1D
1>
1=
1*
#2800000
0#
0"
0!
1&
06
05
04
19
1C
0H
0E
0B
1K
0L
1G
0J
1?
0A
1@
0K
1<
0:
1;
0@
1)
1(
0'
0;
0(
